Groupe 1;PAVY;Martin;HAMMEMI;Nour Allah
Groupe 2;LAUDE;Axel;DIE;Martin
Groupe 3;KOMBOU TCHOUNGA;Jeobran Nathanael;DRONNEAU;Mathys
Groupe 4;HENIART;Loan;FLANDRINCK;Alister
Groupe 5;DE SOUSA;Enzo;SCOTTEZ;Valentin
Groupe 6;DELPY;Enzo;KERRAD;Yacine
Groupe 7;MIMOUN;Younes;NABE;Aboubacar Sidiki
Groupe 8;OUARTASSI;Younes;DE CORTE;Mattias
Groupe 9;SAINTENOY;Tom;CELLIER;Matthieu
Groupe 10;LOUSA YONUZ;Hasan;IKLI;Anas
Groupe 11;MOISAN;Alice;SELLAMI;El Mehdi
Groupe 12;DEVILLEPOIX;Maxime;MARRIS-BINET;Maxence
Groupe 13;EYANGO MOUELLE ;Gilles;BARAS;Hugo
Groupe 14;CHEFIAI;Omaima;GENSE;Quentin
Groupe 15;HARENG;Louis;SEITER;Augustin
Groupe 16;SENSAOUI;Omar;REGNIER;Baptiste
Groupe 17;GANSA DIAMBOTE;Eric;CHMARA;Julien
